xcol ycol error 
100 11.696923 7.610350 
110 11.077396 6.371296 
120 10.631353 5.479211 
130 10.294875 4.806254 
140 10.032007 4.280519 
150 9.820976 3.858458 
160 9.647826 3.512156 
170 9.503196 3.222897 
180 9.380577 2.977658 
190 9.275298 2.767102 
200 9.183926 2.584356 
210 9.103874 2.424253 
220 9.033162 2.282830 
230 8.970246 2.156997 
240 8.913903 2.044312 
250 8.863155 1.942816 
260 8.817208 1.850921 
270 8.775411 1.767327 
280 8.737226 1.690957 
290 8.702205 1.620914 
300 8.669969 1.556443 
