xcol ycol error minsvd ivleft ivright
100 5.9070798738989625 2.1019250704379875 0.2059258313292381 4.8561173386799688 6.9580424091179562 
110 5.7920008148368751 1.8504351368141458 0.2054745299646507 4.8667832464298018 6.7172183832439476 
120 5.7136835383196267 1.6594285078409960 0.2047514924375756 4.8839692843991287 6.5433977922401247 
130 5.6497483725336890 1.5038175022250417 0.2041716506245743 4.8978396214211681 6.4016571236462099 
140 5.5899863688414237 1.3714756249630256 0.2039048364918584 4.9042485563599110 6.2757241813229365 
150 5.5395875874078140 1.2603553926975701 0.2036904683434949 4.9094098910590285 6.1697652837565986 
160 5.4963803279233510 1.1657066789657877 0.2035197938980687 4.9135269884404575 6.0792336674062453 
170 5.4592434935212362 1.0842724894593978 0.2033716063943423 4.9171072487915373 6.0013797382509351 
180 5.4270431966323294 1.0134896297989409 0.2032397067040910 4.9202983817328594 5.9337880115318002 
190 5.3986272431395026 0.9513137526535642 0.2031293965816475 4.9229703668127209 5.8742841194662851 
200 5.3728737275546941 0.8961112166991034 0.2030531840557390 4.9248181192051428 5.8209293359042462 
210 5.3490944679738837 0.8466913045907543 0.2030148181362864 4.9257488156785065 5.7724401202692608 
220 5.3277754595542675 0.8024276193760835 0.2029813226892540 4.9265616498662252 5.7289892692423088 
230 5.3085801745457610 0.7625619731543516 0.2029509396226206 4.9272991879685852 5.6898611611229368 
240 5.2913397566244686 0.7265063691555707 0.2029185131755285 4.9280865720466833 5.6545929412022540 
250 5.2759925426631327 0.6937933045830302 0.2028769620719648 4.9290958903716175 5.6228891949546478 
260 5.2618480782985948 0.6638678445537964 0.2028432886155916 4.9299141560216970 5.5937820005754935 
270 5.2486592143027799 0.6363644837957319 0.2028201339539438 4.9304769724049144 5.5668414562006463 
280 5.2365941452669764 0.6110660550241054 0.2027961073934717 4.9310611177549237 5.5421271727790291 
290 5.2253453593213459 0.5876777795013908 0.2027777933924241 4.9315064695706505 5.5191842490720413 
300 5.2159228974182703 0.5662292760765650 0.2027242794403064 4.9328082593799882 5.4990375354565533 
310 5.2068718691004863 0.5462291819252147 0.2026852849918520 4.9337572781378789 5.4799864600630936 
320 5.1982661185690038 0.5275582324997696 0.2026553113890093 4.9344870023191190 5.4620452348188886 
330 5.1902868091153360 0.5101323378611031 0.2026251859658615 4.9352206401847845 5.4453529780458876 
340 5.1827406655994110 0.4938057595155581 0.2025998510057367 4.9358377858416320 5.4296435453571901 
350 5.1754180400474263 0.4784463906975223 0.2025851959782284 4.9361948446986652 5.4146412353961875 
360 5.1684517664376992 0.4639981963084807 0.2025746152545868 4.9364526682834589 5.4004508645919396 
370 5.1619275726693932 0.4504027909600969 0.2025633920351110 4.9367261771893451 5.3871289681494421 
380 5.1557243216198652 0.4375727440975101 0.2025547029787712 4.9369379495711101 5.3745106936686202 
390 5.1499500492394406 0.4254673982025459 0.2025432812908867 4.9372163501381676 5.3626837483407135 
400 5.1445371181901010 0.4140218163870637 0.2025305704657100 4.9375262099965695 5.3515480263836332 
410 5.1392955615830802 0.4031582237629774 0.2025227673939103 4.9377164497015915 5.3408746734645689 
420 5.1343496078486197 0.3928543135876525 0.2025143185038050 4.9379224510547939 5.3307767646424464 
430 5.1295999906485283 0.3830564308227018 0.2025081945982791 4.9380717752371774 5.3211282060598792 
440 5.1251668688042820 0.3737477711599331 0.2024991233604529 4.9382929832243159 5.3120407543842489 
450 5.1209637443689573 0.3648835418114293 0.2024897338461631 4.9385219734632422 5.3034055152746715 
460 5.1168936025807970 0.3564213938119343 0.2024831355037884 4.9386829056748294 5.2951042994867636 
470 5.1129866378199100 0.3483399105568550 0.2024776508783895 4.9388166825414821 5.2871565930983371 
480 5.1092689021891058 0.3406188828791921 0.2024717975409836 4.9389594607495093 5.2795783436287014 
490 5.1056872358565784 0.3332294016839965 0.2024671621869688 4.9390725350145797 5.2723019366985762 
500 5.1022775440403922 0.3261562496203299 0.2024619609620560 4.9391994192302269 5.2653556688505567 
510 5.0989928268219602 0.3193750080955411 0.2024576199793100 4.9393053227741897 5.2586803308697307 
520 5.0958381036055638 0.3128695220601942 0.2024536023167907 4.9394033425754662 5.2522728646356605 
530 5.0927637032463799 0.3066182674491635 0.2024515026760966 4.9394545695217982 5.2460728369709617 
540 5.0898011927384985 0.3006109070306797 0.2024498152836288 4.9394957392231582 5.2401066462538379 
550 5.0869549196104291 0.2948346898972369 0.2024481006338870 4.9395375746618102 5.2343722645590471 
560 5.0842142577236338 0.2892760674853792 0.2024465165949138 4.9395762239809446 5.2288522914663238 
570 5.0815823062066521 0.2839239722846214 0.2024447093510569 4.9396203200643409 5.2235442923489623 
580 5.0790552420045660 0.2787673363610237 0.2024426087959222 4.9396715738240538 5.2184389101850774 
590 5.0766058272353405 0.2737933156770564 0.2024410680279200 4.9397091693968118 5.2135024850738683 
600 5.0742431144131492 0.2689937689164967 0.2024395492092171 4.9397462299549009 5.2087399988713976 
610 5.0719534720547852 0.2643587213522398 0.2024384065855402 4.9397741113786653 5.2041328327309051 
620 5.0697633842899998 0.2598829514794048 0.2024364478138591 4.9398219085502975 5.1997048600297022 
630 5.0676549213120232 0.2555570867233481 0.2024342156543844 4.9398763779503492 5.1954334646736973 
640 5.0656097479158317 0.2513723007273541 0.2024322806319359 4.9399235975521547 5.1912958982795088 
650 5.0636448943421550 0.2473237636143715 0.2024298459048438 4.9399830125349693 5.1873067761493408 
660 5.0617373346643202 0.2434030844416872 0.2024276831211728 4.9400357924434761 5.1834388768851634 
670 5.0598784461036121 0.2396037379016072 0.2024260119012863 4.9400765771528086 5.1796803150544157 
680 5.0580644091015987 0.2359200300310480 0.2024248720729719 4.9401043940860747 5.1760244241171227 
690 5.0563117619795523 0.2323484661614312 0.2024235143556623 4.9401375288988367 5.1724859950602680 
700 5.0546040988616010 0.2288827664862341 0.2024224823280553 4.9401627156184835 5.1690454821047176 
710 5.0529611151888094 0.2255202266002554 0.2024209135656002 4.9402010018886813 5.1657212284889367 
720 5.0513670737558183 0.2222551731103719 0.2024193366720054 4.9402394872006328 5.1624946603110047 
730 5.0498028447693297 0.2190819499765633 0.2024184195815352 4.9402618697810485 5.1593438197576118 
740 5.0482846151999148 0.2159982286462787 0.2024174513441633 4.9402855008767750 5.1562837295230537 
750 5.0468076575140799 0.2130000380928232 0.2024165443085988 4.9403076384676687 5.1533076765604919 
760 5.0454081834806068 0.2100870239696890 0.2024142075522608 4.9403646714957619 5.1504516954654509 
770 5.0440665173370220 0.2072542563322477 0.2024111463024789 4.9404393891708978 5.1476936455031455 
780 5.0427447662340210 0.2044955822277972 0.2024087870179672 4.9404969751201229 5.1449925573479200 
790 5.0414446409620091 0.2018083318834050 0.2024070048724557 4.9405404750203061 5.1423488069037111 
800 5.0401930483750927 0.1991919592009230 0.2024046863323789 4.9405970687746308 5.1397890279755538 
810 5.0389621568050007 0.1966416722539490 0.2024028734518145 4.9406413206780266 5.1372829929319757 
820 5.0377476748361047 0.1941547281197993 0.2024016858236580 4.9406703107762047 5.1348250388960039 
830 5.0365870477761101 0.1917316924744377 0.2023996010316326 4.9407212015388913 5.1324528940133289 
840 5.0354391009111037 0.1893671903130594 0.2023981957486632 4.9407555057545745 5.1301226960676338 
850 5.0343258377587929 0.1870607950962953 0.2023965598457090 4.9407954402106453 5.1278562353069406 
860 5.0332379255106021 0.1848097982057304 0.2023950201626336 4.9408330264077369 5.1256428246134673 
870 5.0321744845738907 0.1826122291451142 0.2023935723670635 4.9408683700013336 5.1234805991464478 
880 5.0311326198391875 0.1804660622671594 0.2023922935584236 4.9408995887056077 5.1213656509727672 
890 5.0301140786611231 0.1783696920503530 0.2023910792720477 4.9409292326359466 5.1192989246862997 
900 5.0291145200491973 0.1763211572706975 0.2023900671524679 4.9409539414138486 5.1172750986845461 
910 5.0281265757677192 0.1743183731042492 0.2023895163086182 4.9409673892155945 5.1152857623198438 
920 5.0271609460565063 0.1723605841669675 0.2023889729654991 4.9409806539730230 5.1133412381399905 
930 5.0262150885385246 0.1704461690324885 0.2023885080538355 4.9409920040222799 5.1114381730547684 
940 5.0252921783488915 0.1685739587247985 0.2023879675749222 4.9410051989864918 5.1095791577112903 
950 5.0243917929747504 0.1667425945044476 0.2023873410089488 4.9410204957225261 5.1077630902269737 
960 5.0235090447840101 0.1649504809955742 0.2023867958831864 4.9410338042862225 5.1059842852817967 
970 5.0226436998247799 0.1631963910299783 0.2023863166464987 4.9410455043097903 5.1042418953397686 
980 5.0217957327080196 0.1614791608407771 0.2023858805039113 4.9410561522876311 5.1025353131284081 
990 5.0209655524333332 0.1597977012274905 0.2023854483955340 4.9410667018195884 5.1008644030470789 
1000 5.0201563389437869 0.1581511409958472 0.2023848722299947 4.9410807684458637 5.0992319094417109 
